<?xml version="1.0" encoding="utf-8"?>
<!-- Generator: Adobe Illustrator 24.1.1, SVG Export Plug-In . SVG Version: 6.00 Build 0)  -->
<svg version="1.1"
	 id="svg3140" inkscape:output_extension="org.inkscape.output.svg.inkscape" inkscape:version="0.46" sodipodi:docname="FreeCAD05.svg" xmlns:cc="http://creativecommons.org/ns#" xmlns:dc="http://purl.org/dc/elements/1.1/" xmlns:inkscape="http://www.inkscape.org/namespaces/inkscape" xmlns:rdf="http://www.w3.org/1999/02/22-rdf-syntax-ns#" xmlns:sodipodi="http://sodipodi.sourceforge.net/DTD/sodipodi-0.dtd" xmlns:svg="http://www.w3.org/2000/svg"
	 xmlns="http://www.w3.org/2000/svg" xmlns:xlink="http://www.w3.org/1999/xlink" x="0px" y="0px" viewBox="0 0 64 64"
	 style="enable-background:new 0 0 64 64;" xml:space="preserve">
<style type="text/css">
	.st0{fill-rule:evenodd;clip-rule:evenodd;fill:url(#rect3663_1_);stroke:#370700;stroke-width:1.6247;stroke-miterlimit:3.4026;}
	.st1{fill-rule:evenodd;clip-rule:evenodd;fill:url(#path3659_1_);stroke:#000137;stroke-width:1.6247;stroke-miterlimit:3.4026;}
</style>
<script  xmlns=""></script>
<defs>
	
		<inkscape:perspective  id="perspective3148" inkscape:persp3d-origin="32 : 21.333333 : 1" inkscape:vp_x="0 : 32 : 1" inkscape:vp_y="0 : 1000 : 0" inkscape:vp_z="64 : 32 : 1" sodipodi:type="inkscape:persp3d">
		</inkscape:perspective>
</defs>
<sodipodi:namedview  bordercolor="#666666" borderopacity="1.0" id="base" inkscape:current-layer="layer1" inkscape:cx="32" inkscape:cy="32" inkscape:document-units="px" inkscape:grid-bbox="true" inkscape:pageopacity="0.0" inkscape:pageshadow="2" inkscape:window-height="684" inkscape:window-width="640" inkscape:window-x="0" inkscape:window-y="93" inkscape:zoom="5.5" pagecolor="#ffffff" showgrid="true">
	</sodipodi:namedview>
<g id="layer1" inkscape:groupmode="layer" inkscape:label="Layer 1">
	<g id="g3813" transform="matrix(0.850641, 0, 0, 0.850641, 187.827, -0.196001)">
		
			<radialGradient id="rect3663_1_" cx="302.8223" cy="650.1995" r="16.2589" gradientTransform="matrix(0.9484 0.2316 0.6386 -2.6153 -893.1286 1663.0823)" gradientUnits="userSpaceOnUse">
			<stop  offset="0" style="stop-color:#FF6D0F"/>
			<stop  offset="1" style="stop-color:#FF1000"/>
		</radialGradient>
		<path id="rect3663" sodipodi:nodetypes="ccccccccccc" class="st0" d="M-208.4,14.2v46.1h10.3v-18h7.3v-7.1h-7.3v-7.7h17.9V14.2
			L-208.4,14.2z"/>
		
			<radialGradient id="path3659_1_" cx="464.0099" cy="1132.0134" r="16.2589" gradientTransform="matrix(0.5263 0.8223 0.8789 -0.5625 -1419.6268 293.831)" gradientUnits="userSpaceOnUse">
			<stop  offset="0" style="stop-color:#71B2F8"/>
			<stop  offset="1" style="stop-color:#002795"/>
		</radialGradient>
		<path id="path3659" class="st1" d="M-162.6,27.9l-6,3.4l-2.6-0.9l-2.5-6.4l-4,0.2l-1.8,6.7l-2.5,1.2l-6.3-2.8l-2.7,3l3.4,6
			l-0.9,2.6l-6.4,2.5l0.2,4l6.7,1.8l1.2,2.5l-2.8,6.3l3,2.7l6-3.4l2.7,0.9l2.5,6.4l4-0.2l1.8-6.7l2.5-1.2l6.3,2.8l2.7-3l-3.4-6
			l0.9-2.7l6.4-2.5l-0.2-4l-6.7-1.8l-1.2-2.5l2.8-6.3L-162.6,27.9z M-171.6,37.7l1.2,0.7l1.1,1l0.9,1.2l0.6,1.3l0.4,1.4l0.1,1.4
			l-0.2,1.4l-0.5,1.3l-0.7,1.2l-0.9,1.1l-1.2,0.9l-1.3,0.6l-1.4,0.4l-1.4,0.1l-1.4-0.2l-1.3-0.5l-1.2-0.7l-1-1l-0.9-1.1l-0.6-1.3
			l-0.4-1.4l-0.1-1.4l0.2-1.4l0.5-1.3l0.7-1.2l0.9-1.1l1.2-0.9l1.3-0.6l1.4-0.4l1.4-0.1l1.4,0.2L-171.6,37.7z"/>
	</g>
</g>
</svg>
